module gitlab.com/yanzay/httpg

require (
	github.com/klauspost/compress v1.2.1
	github.com/klauspost/cpuid v0.0.0-20180405133222-e7e905edc00e
	github.com/klauspost/crc32 v0.0.0-20170628072449-bab58d77464a
	github.com/valyala/bytebufferpool v0.0.0-20160817181652-e746df99fe4a
	github.com/valyala/fasthttp v0.0.0-20171207120941-e5f51c11919d
)
